{
    "current_page": 1,
    "total_pages": 282,
    "total_items": 844,
    "photos": [
        {
            "id": 142795351,
            "user_id": 8264807,
            "name": "Stepping Down",
            "description": "",
            "camera": "iPhone 6s",
            "lens": null,
            "focal_length": "4",
            "iso": "25",
            "shutter_speed": "1/296",
            "aperture": "2.2",
            "times_viewed": 0,
            "rating": 0,
            "status": 1,
            "created_at": "2016-03-03T07:14:14-05:00",
            "category": 10,
            "location": null,
            "latitude": 45.5170166666667,
            "longitude": -73.5745611111111,
            "taken_at": "2015-11-07T11:24:20-05:00",
            "hi_res_uploaded": 0,
            "for_sale": false,
            "width": 2355,
            "height": 3139,
            "votes_count": 0,
            "favorites_count": 0,
            "comments_count": 0,
            "nsfw": false,
            "sales_count": 0,
            "for_sale_date": null,
            "highest_rating": 0,
            "highest_rating_date": null,
            "license_type": 0,
            "converted": 27,
            "collections_count": 2,
            "crop_version": 3,
            "privacy": false,
            "profile": true,
            "image_url": "https://drscdn.500px.org/photo/142795351/m%3D900_k%3D1_a%3D1/53d0ae46cf747bf7e94951d52f842b2d",
            "images": [
                {
                    "size": 4,
                    "url": "https://drscdn.500px.org/photo/142795351/m%3D900_k%3D1_a%3D1/53d0ae46cf747bf7e94951d52f842b2d",
                    "https_url": "https://drscdn.500px.org/photo/142795351/m%3D900_k%3D1_a%3D1/53d0ae46cf747bf7e94951d52f842b2d",
                    "format": "jpeg"
                }
            ],
            "url": "/photo/142795351/stepping-down-by-natalie-rodrigue",
            "positive_votes_count": 0,
            "converted_bits": 27,
            "store_download": false,
            "store_print": false,
            "store_license": false,
            "request_to_buy_enabled": true,
            "license_requests_enabled": true,
            "tags": [
                "Stairs",
                "Steps",
                "Shadows",
                "Montreal",
                "Contrast",
                "Lines",
                "Zigzag",
                "Black & white"
            ],
            "voted": false,
            "liked": false,
            "disliked": false,
            "favorited": false,
            "purchased": false,
            "watermark": false,
            "image_format": "jpeg",
            "user": {
                "id": 8264807,
                "username": "natalierodrigue",
                "firstname": "Natalie",
                "lastname": "Rodrigue",
                "city": "Montreal",
                "country": "Canada",
                "usertype": 0,
                "fullname": "Natalie Rodrigue",
                "userpic_url": "https://pacdn.500px.org/8264807/7bad95a3fc3cf859fe6246c5a50305514c669b98/1.jpg?5",
                "userpic_https_url": "https://pacdn.500px.org/8264807/7bad95a3fc3cf859fe6246c5a50305514c669b98/1.jpg?5",
                "cover_url": "https://pacdn.500px.org/8264807/7bad95a3fc3cf859fe6246c5a50305514c669b98/cover_2048.jpg?10",
                "upgrade_status": 0,
                "store_on": true,
                "affection": 1540,
                "avatars": {
                    "default": {
                        "https": "https://pacdn.500px.org/8264807/7bad95a3fc3cf859fe6246c5a50305514c669b98/1.jpg?5"
                    },
                    "large": {
                        "https": "https://pacdn.500px.org/8264807/7bad95a3fc3cf859fe6246c5a50305514c669b98/2.jpg?5"
                    },
                    "small": {
                        "https": "https://pacdn.500px.org/8264807/7bad95a3fc3cf859fe6246c5a50305514c669b98/3.jpg?5"
                    },
                    "tiny": {
                        "https": "https://pacdn.500px.org/8264807/7bad95a3fc3cf859fe6246c5a50305514c669b98/4.jpg?5"
                    }
                },
                "followers_count": 0
            },
            "licensing_requested": false
        },
        {
            "id": 142795277,
            "user_id": 8326841,
            "name": "Untitled",
            "description": null,
            "camera": "FinePix HS20EXR",
            "lens": null,
            "focal_length": "126",
            "iso": "800",
            "shutter_speed": "1/250",
            "aperture": "5.6",
            "times_viewed": 0,
            "rating": 0,
            "status": 1,
            "created_at": "2016-03-03T07:13:11-05:00",
            "category": 10,
            "location": null,
            "latitude": -25.4827475,
            "longitude": -48.8290713,
            "taken_at": "2013-11-16T16:54:44-05:00",
            "hi_res_uploaded": 0,
            "for_sale": false,
            "width": 3264,
            "height": 2448,
            "votes_count": 0,
            "favorites_count": 0,
            "comments_count": 0,
            "nsfw": false,
            "sales_count": 0,
            "for_sale_date": null,
            "highest_rating": 0,
            "highest_rating_date": null,
            "license_type": 0,
            "converted": 27,
            "collections_count": 1,
            "crop_version": 3,
            "privacy": false,
            "profile": true,
            "image_url": "https://drscdn.500px.org/photo/142795277/m%3D900_k%3D1_a%3D1/f8c1119978897b6eb7ac51731f7105df",
            "images": [
                {
                    "size": 4,
                    "url": "https://drscdn.500px.org/photo/142795277/m%3D900_k%3D1_a%3D1/f8c1119978897b6eb7ac51731f7105df",
                    "https_url": "https://drscdn.500px.org/photo/142795277/m%3D900_k%3D1_a%3D1/f8c1119978897b6eb7ac51731f7105df",
                    "format": "jpeg"
                }
            ],
            "url": "/photo/142795277/untitled-by-marcia-gollnick-costa",
            "positive_votes_count": 0,
            "converted_bits": 27,
            "store_download": false,
            "store_print": false,
            "store_license": false,
            "request_to_buy_enabled": true,
            "license_requests_enabled": true,
            "tags": [
                "river",
                "stones",
                "abstract",
                "rio",
                "pedras"
            ],
            "voted": false,
            "liked": false,
            "disliked": false,
            "favorited": false,
            "purchased": false,
            "watermark": false,
            "image_format": "jpeg",
            "user": {
                "id": 8326841,
                "username": "MarciaGollnickCosta",
                "firstname": "Marcia Gollnick",
                "lastname": "Costa",
                "city": "Curitiba",
                "country": "Brazil",
                "usertype": 0,
                "fullname": "Marcia Gollnick Costa",
                "userpic_url": "https://pacdn.500px.org/8326841/38078cd87e1fcf12e7e0020941ef95b6f88d1c63/1.jpg?3",
                "userpic_https_url": "https://pacdn.500px.org/8326841/38078cd87e1fcf12e7e0020941ef95b6f88d1c63/1.jpg?3",
                "cover_url": "https://pacdn.500px.org/8326841/38078cd87e1fcf12e7e0020941ef95b6f88d1c63/cover_2048.jpg?6",
                "upgrade_status": 1,
                "store_on": true,
                "affection": 9627,
                "avatars": {
                    "default": {
                        "https": "https://pacdn.500px.org/8326841/38078cd87e1fcf12e7e0020941ef95b6f88d1c63/1.jpg?3"
                    },
                    "large": {
                        "https": "https://pacdn.500px.org/8326841/38078cd87e1fcf12e7e0020941ef95b6f88d1c63/2.jpg?3"
                    },
                    "small": {
                        "https": "https://pacdn.500px.org/8326841/38078cd87e1fcf12e7e0020941ef95b6f88d1c63/3.jpg?3"
                    },
                    "tiny": {
                        "https": "https://pacdn.500px.org/8326841/38078cd87e1fcf12e7e0020941ef95b6f88d1c63/4.jpg?3"
                    }
                },
                "followers_count": 0
            },
            "licensing_requested": false
        },
        {
            "id": 142795223,
            "user_id": 16419889,
            "name": "Late Night",
            "description": null,
            "camera": "NIKON D3100",
            "lens": "55.0-200.0 mm f/4.0-5.6",
            "focal_length": "55",
            "iso": "1600",
            "shutter_speed": "1/25",
            "aperture": "4",
            "times_viewed": 1,
            "rating": 32,
            "status": 1,
            "created_at": "2016-03-03T07:12:42-05:00",
            "category": 10,
            "location": null,
            "latitude": null,
            "longitude": null,
            "taken_at": "2015-09-08T15:38:30-04:00",
            "hi_res_uploaded": 0,
            "for_sale": false,
            "width": 6144,
            "height": 4608,
            "votes_count": 1,
            "favorites_count": 0,
            "comments_count": 0,
            "nsfw": false,
            "sales_count": 0,
            "for_sale_date": null,
            "highest_rating": 32,
            "highest_rating_date": "2016-03-03T07:14:37-05:00",
            "license_type": 0,
            "converted": 27,
            "collections_count": 0,
            "crop_version": 3,
            "privacy": false,
            "profile": true,
            "image_url": "https://drscdn.500px.org/photo/142795223/m%3D900_k%3D1_a%3D1/df46c4789ab67bb978601e5abecc54a0",
            "images": [
                {
                    "size": 4,
                    "url": "https://drscdn.500px.org/photo/142795223/m%3D900_k%3D1_a%3D1/df46c4789ab67bb978601e5abecc54a0",
                    "https_url": "https://drscdn.500px.org/photo/142795223/m%3D900_k%3D1_a%3D1/df46c4789ab67bb978601e5abecc54a0",
                    "format": "jpeg"
                }
            ],
            "url": "/photo/142795223/late-night-by-florian-holzmann",
            "positive_votes_count": 1,
            "converted_bits": 27,
            "store_download": false,
            "store_print": false,
            "store_license": false,
            "request_to_buy_enabled": true,
            "license_requests_enabled": false,
            "tags": [
                "sky",
                "city",
                "reflection",
                "travel",
                "blue",
                "night",
                "light",
                "architecture",
                "building",
                "glass"
            ],
            "voted": false,
            "liked": false,
            "disliked": false,
            "favorited": false,
            "purchased": false,
            "watermark": false,
            "image_format": "jpeg",
            "user": {
                "id": 16419889,
                "username": "FlorianHolzmann",
                "firstname": "Florian",
                "lastname": "Holzmann",
                "city": "Munich, Germany",
                "country": "Germany",
                "usertype": 0,
                "fullname": "Florian Holzmann",
                "userpic_url": "https://graph.facebook.com/10204575233535602/picture?height=100&width=100",
                "userpic_https_url": "https://graph.facebook.com/10204575233535602/picture?height=100&width=100",
                "cover_url": "https://pacdn.500px.org/16419889/46318c0471362797894afe0fd22c30925c6933cd/cover_2048.jpg?5",
                "upgrade_status": 2,
                "store_on": false,
                "affection": 81,
                "avatars": {
                    "default": {
                        "https": "https://graph.facebook.com/10204575233535602/picture?height=100&width=100"
                    },
                    "large": {
                        "https": "https://graph.facebook.com/10204575233535602/picture?height=100&width=100"
                    },
                    "small": {
                        "https": "https://graph.facebook.com/10204575233535602/picture?height=100&width=100"
                    },
                    "tiny": {
                        "https": "https://graph.facebook.com/10204575233535602/picture?height=100&width=100"
                    }
                },
                "followers_count": 0
            },
            "licensing_requested": false
        }
    ],
    "filters": {
        "category": 10,
        "exclude": false
    },
    "feature": "fresh_today"
}
