{
  "current_page": 1,
  "total_pages": 28,
  "total_items": 84,
  "photos": [
    {
      "id": 63144041,
      "user_id": 3203151,
      "name": "Oshino Hakkai（Springs of Mt Fuji）",
      "description": "Oshino Hakkai（Springs of Mt Fuji）",
      "camera": "ILCE-7",
      "lens": "Biogon T* 25mm F2.8",
      "focal_length": "25",
      "iso": "200",
      "shutter_speed": null,
      "aperture": null,
      "times_viewed": 3407,
      "rating": 48.7,
      "status": 1,
      "created_at": "2014-03-08T03:55:36-05:00",
      "category": 8,
      "location": null,
      "latitude": 35.1418096485079,
      "longitude": 138.647117614746,
      "taken_at": "2014-02-09T22:36:18-05:00",
      "hi_res_uploaded": 2,
      "for_sale": true,
      "width": 5546,
      "height": 3688,
      "votes_count": 111,
      "favorites_count": 48,
      "comments_count": 3,
      "nsfw": false,
      "sales_count": 0,
      "for_sale_date": null,
      "highest_rating": 96.3,
      "highest_rating_date": "2014-03-09T01:23:30-05:00",
      "license_type": 0,
      "converted": 31,
      "collections_count": -3,
      "crop_version": 0,
      "privacy": false,
      "profile": true,
      "image_url": "https://drscdn.500px.org/photo/63144041/q%3D50_w%3D140_h%3D140/b6cd4610d20533f4bb131f69590c43e8?v=0",
      "images": [
        {
          "size": 2,
          "url": "https://drscdn.500px.org/photo/63144041/q%3D50_w%3D140_h%3D140/b6cd4610d20533f4bb131f69590c43e8?v=0",
          "https_url": "https://drscdn.500px.org/photo/63144041/q%3D50_w%3D140_h%3D140/b6cd4610d20533f4bb131f69590c43e8?v=0",
          "format": "jpeg"
        }
      ],
      "url": "/photo/63144041/oshino-hakkai-springs-of-mt-fuji-by-peng-zhang",
      "positive_votes_count": 111,
      "converted_bits": 31,
      "share_counts": {
        "facebook": 2,
        "pinterest": 0,
        "twitter": 0
      },
      "tags": [
        "sky",
        "sunset",
        "nature",
        "blue",
        "light",
        "clouds",
        "vacation",
        "alpha",
        "fun",
        "evil",
        "camera",
        "abandoned",
        "weather",
        "digital",
        "lightroom",
        "lens",
        "holiday",
        "photographer",
        "interesting",
        "test",
        "best",
        "zm",
        "photomatix",
        "popular",
        "manual focus",
        "explore",
        "full frame",
        "fixed",
        "mirrorless",
        "landscapephotography",
        "Landscape",
        "Photoshop",
        "Carl Zeiss",
        "SONY",
        "Prime lens",
        "NEX",
        "Biogon T* 25mm F2.8",
        "E-mount",
        "SONY A7",
        "sonyphotography",
        "Insterstingness"
      ],
      "watermark": false,
      "image_format": "jpeg",
      "licensing_requested": false,
      "user": {
        "id": 3203151,
        "username": "NothingProject",
        "firstname": "Peng",
        "lastname": "Zhang",
        "city": "nanning",
        "country": "China",
        "usertype": 0,
        "fullname": "Peng Zhang",
        "userpic_url": "https://pacdn.500px.org/3203151/cadf5a21b37a9cf971cca5c7f048d7cf270302dc/1.jpg?1",
        "userpic_https_url": "https://pacdn.500px.org/3203151/cadf5a21b37a9cf971cca5c7f048d7cf270302dc/1.jpg?1",
        "cover_url": "https://pacdn.500px.org/3203151/cadf5a21b37a9cf971cca5c7f048d7cf270302dc/cover_2048.jpg?8",
        "upgrade_status": 0,
        "store_on": true,
        "affection": 624,
        "avatars": {
          "default": {
            "https": "https://pacdn.500px.org/3203151/cadf5a21b37a9cf971cca5c7f048d7cf270302dc/1.jpg?1"
          },
          "large": {
            "https": "https://pacdn.500px.org/3203151/cadf5a21b37a9cf971cca5c7f048d7cf270302dc/2.jpg?1"
          },
          "small": {
            "https": "https://pacdn.500px.org/3203151/cadf5a21b37a9cf971cca5c7f048d7cf270302dc/3.jpg?1"
          },
          "tiny": {
            "https": "https://pacdn.500px.org/3203151/cadf5a21b37a9cf971cca5c7f048d7cf270302dc/4.jpg?1"
          }
        },
        "followers_count": 44
      }
    },
    {
      "id": 8903958,
      "user_id": 99825,
      "name": "iPhone",
      "description": "DOF test with my 50mm lens and my iPhone 4S= Awesome. ",
      "camera": "Nikon D90",
      "lens": "Nikon 50mm f/1.8D AF ",
      "focal_length": "50",
      "iso": "100",
      "shutter_speed": "1/40",
      "aperture": "1.8",
      "times_viewed": 1149,
      "rating": 34,
      "status": 1,
      "created_at": "2012-06-26T03:17:20-04:00",
      "category": 12,
      "location": null,
      "latitude": null,
      "longitude": null,
      "taken_at": "2012-05-02T03:47:46-04:00",
      "hi_res_uploaded": 1,
      "for_sale": true,
      "width": 3468,
      "height": 2014,
      "votes_count": 4,
      "favorites_count": 2,
      "comments_count": 2,
      "nsfw": false,
      "sales_count": 0,
      "for_sale_date": null,
      "highest_rating": 72.1,
      "highest_rating_date": "2012-06-27T23:04:15-04:00",
      "license_type": 0,
      "converted": 27,
      "collections_count": 0,
      "crop_version": 2,
      "privacy": false,
      "profile": true,
      "image_url": "https://drscdn.500px.org/photo/8903958/q%3D50_w%3D140_h%3D140/2858e0eae6258ef078f469a225fe97b3?v=2",
      "images": [
        {
          "size": 2,
          "url": "https://drscdn.500px.org/photo/8903958/q%3D50_w%3D140_h%3D140/2858e0eae6258ef078f469a225fe97b3?v=2",
          "https_url": "https://drscdn.500px.org/photo/8903958/q%3D50_w%3D140_h%3D140/2858e0eae6258ef078f469a225fe97b3?v=2",
          "format": "jpeg"
        }
      ],
      "url": "/photo/8903958/iphone-by-ryan-nicholson",
      "positive_votes_count": 4,
      "converted_bits": 27,
      "share_counts": {
        "pinterest": 0,
        "facebook": 1,
        "twitter": 0
      },
      "tags": [
        "telephone",
        "dof",
        "glass",
        "apple",
        "phone",
        "the",
        "object",
        "smart",
        "desk",
        "iphone",
        "cell",
        "tech",
        "test",
        "depth of field",
        "mobile",
        "best",
        "technology",
        "geek",
        "prime",
        "sample",
        "4s",
        "gadgets",
        "iphone 4s",
        ""
      ],
      "watermark": false,
      "image_format": "jpeg",
      "licensing_requested": false,
      "user": {
        "id": 99825,
        "username": "RyanJNicholson",
        "firstname": "Ryan",
        "lastname": "Nicholson",
        "city": "York",
        "country": "United Kingdom",
        "usertype": 0,
        "fullname": "Ryan Nicholson",
        "userpic_url": "https://pacdn.500px.org/99825/5741b478999c551571ab06bea713448d777e3351/1.jpg?3",
        "userpic_https_url": "https://pacdn.500px.org/99825/5741b478999c551571ab06bea713448d777e3351/1.jpg?3",
        "cover_url": "https://pacdn.500px.org/99825/5741b478999c551571ab06bea713448d777e3351/cover_2048.jpg?14",
        "upgrade_status": 0,
        "store_on": true,
        "affection": 271,
        "avatars": {
          "default": {
            "https": "https://pacdn.500px.org/99825/5741b478999c551571ab06bea713448d777e3351/1.jpg?3"
          },
          "large": {
            "https": "https://pacdn.500px.org/99825/5741b478999c551571ab06bea713448d777e3351/2.jpg?3"
          },
          "small": {
            "https": "https://pacdn.500px.org/99825/5741b478999c551571ab06bea713448d777e3351/3.jpg?3"
          },
          "tiny": {
            "https": "https://pacdn.500px.org/99825/5741b478999c551571ab06bea713448d777e3351/4.jpg?3"
          }
        },
        "followers_count": 26
      }
    },
    {
      "id": 105464621,
      "user_id": 10751411,
      "name": "Good luck",
      "description": "Good luck written in chalk on a black board",
      "camera": "Canon EOS 40D",
      "lens": null,
      "focal_length": "48",
      "iso": "100",
      "shutter_speed": "1/10",
      "aperture": "8",
      "times_viewed": 276,
      "rating": 25.2,
      "status": 1,
      "created_at": "2015-04-18T03:12:45-04:00",
      "category": 10,
      "location": null,
      "latitude": null,
      "longitude": null,
      "taken_at": "2011-08-27T21:08:16-04:00",
      "hi_res_uploaded": 0,
      "for_sale": false,
      "width": 2701,
      "height": 2006,
      "votes_count": 3,
      "favorites_count": 3,
      "comments_count": 0,
      "nsfw": false,
      "sales_count": 0,
      "for_sale_date": null,
      "highest_rating": 42.9,
      "highest_rating_date": "2015-04-22T19:30:49-04:00",
      "license_type": 0,
      "converted": 27,
      "collections_count": 2,
      "crop_version": 8,
      "privacy": false,
      "profile": true,
      "image_url": "https://drscdn.500px.org/photo/105464621/q%3D50_w%3D140_h%3D140/545ceb686105a628819ebc910cb84146?v=8",
      "images": [
        {
          "size": 2,
          "url": "https://drscdn.500px.org/photo/105464621/q%3D50_w%3D140_h%3D140/545ceb686105a628819ebc910cb84146?v=8",
          "https_url": "https://drscdn.500px.org/photo/105464621/q%3D50_w%3D140_h%3D140/545ceb686105a628819ebc910cb84146?v=8",
          "format": "jpeg"
        }
      ],
      "url": "/photo/105464621/good-luck-by-tom-gowanlock",
      "positive_votes_count": 3,
      "converted_bits": 27,
      "share_counts": {
        "facebook": 0,
        "twitter": 0,
        "pinterest": 0
      },
      "tags": [
        "life",
        "colors",
        "writing",
        "black",
        "school",
        "board",
        "student",
        "chalk",
        "colours",
        "university",
        "frame",
        "college",
        "test",
        "luck",
        "black board",
        "teacher",
        "best",
        "education",
        "event",
        "pass",
        "middle",
        "wish",
        "pupil",
        "elementary",
        "fortune",
        "preschool",
        "primary",
        "success",
        "examination",
        "results",
        "degree",
        "exam",
        "handwriting",
        "blackboard",
        "wishes",
        "achievement",
        "successful",
        "stationery",
        "supply",
        "supplies",
        "good luck",
        "pre-school",
        "outcome",
        "qualification",
        "secondary"
      ],
      "watermark": false,
      "image_format": "jpeg",
      "licensing_requested": false,
      "user": {
        "id": 10751411,
        "username": "TomGowanlock",
        "firstname": "Tom",
        "lastname": "Gowanlock",
        "city": "Bury St Edmunds",
        "country": "United Kingdom",
        "usertype": 0,
        "fullname": "Tom Gowanlock",
        "userpic_url": "https://graph.facebook.com/529584975/picture?height=100&width=100",
        "userpic_https_url": "https://graph.facebook.com/529584975/picture?height=100&width=100",
        "cover_url": null,
        "upgrade_status": 1,
        "store_on": true,
        "affection": 6392,
        "avatars": {
          "default": {
            "https": "https://graph.facebook.com/529584975/picture?height=100&width=100"
          },
          "large": {
            "https": "https://graph.facebook.com/529584975/picture?height=100&width=100"
          },
          "small": {
            "https": "https://graph.facebook.com/529584975/picture?height=100&width=100"
          },
          "tiny": {
            "https": "https://graph.facebook.com/529584975/picture?height=100&width=100"
          }
        },
        "followers_count": 41
      }
    }
  ]
}
